1 10 20
100 200 125
201 210 89
900 1000 174
368119 495298 449
921648 728446 525
939637 976455 458
543193 732783 509
584217 950017 525
529527 764223 509
916778 702072 525
125368 428375 449
611493 738420 509
829835 319604 509
171294 829169 509
961936 807797 525
822256 388223 509
155088 567557 470
152604 619525 470
787963 609149 509
17535 509214 449
430713 365153 449
666996 796073 504
601657 608437 403
337073 855487 525
494696 40442 449
175593 271382 443
847058 330369 525
107514 668910 509
290455 846951 525
38782 264577 443
230516 921113 525
302436 953457 525
851731 497565 525
154805 227400 386
147587 65721 375
916007 983301 507
93149 780385 509
14464 908163 525
433067 725704 509
463413 330478 449
940829 518809 525
443324 542394 470
218338 578051 470
990296 88521 525
155805 629696 509
664796 410293 509
676069 352706 509
655664 10256 509
968204 249867 525
300158 275590 389
491232 510997 426
395192 579083 470
582330 395195 470
908432 233464 525
693253 751490 504
44981 268563 443
937281 783635 525
58112 165128 383
1974 940127 525
608730 498702 470
751302 505152 509
28278 888912 525
659825 523948 509
238143 876658 525
944739 811241 525
456664 640398 509
168323 662320 509
459171 665441 509
960647 617320 525
677442 967880 525
83371 363695 443
839322 592669 525
321614 194327 443
179532 211449 373
983387 866074 507
679567 639608 442
949734 36701 525
658708 829832 504
87904 551233 470
143402 832232 509
64327 88320 351
797405 787836 468
580915 556085 421
940733 202003 525
328417 144727 443
356289 142118 443
821562 280240 509
399442 468634 449
360472 926554 525
508906 290310 449
13697 538099 470
131427 212930 383
278937 143410 443
810624 896609 525
821764 837643 419
665289 539727 509
495972 441215 444
70078 833010 509
596443 165478 470
376527 688484 509
533554 505327 470
129323 178032 383
150401 14487 375
292006 951695 525
918337 993584 507
484111 374895 449
547017 853701 525
257643 635602 509
730570 84229 509
727017 527153 509
931352 179666 525
287483 686011 509
148956 308240 443
68503 885487 525
519552 198782 470
775835 827514 468
829117 252736 509
949639 570049 525
225373 867672 525
350110 467773 449
709103 229498 509
483919 994882 525
281096 92038 443
555631 80368 470
318988 99174 443
605679 583106 434
834338 573378 509
823661 475117 509
130817 589007 470
506214 77171 449
460929 430187 400
648578 367914 509
348251 207246 443
726697 361909 509
733584 787844 468
521192 303626 470
251886 488272 449
234370 889868 525
361072 198084 443
214933 154576 383
851322 470334 525
561669 464524 470
568575 600982 434
767001 688570 504
109059 911260 525
214775 881473 525
564727 941756 525
850436 550682 525
961334 745020 525
549258 569481 421
89771 589114 470
973395 72677 525
754793 325842 509
917823 532879 525
114465 508798 449
995526 664598 525
776295 733073 468
974240 711069 525
56973 512739 470
280329 925535 525
835958 194419 509
662298 136563 509
697944 965667 525
22204 970823 525
209111 64377 383
490274 835397 509
169012 912570 525
775286 774560 437
775676 664335 504
890698 446857 525
275346 183195 443
884959 111401 525
639665 941258 525
766325 887929 525
83932 459612 449
742265 39014 509
666818 569708 509
958185 671921 525
995653 878800 507
561092 502558 470
590087 357318 470
740000 455685 509
902675 976130 507
650111 618557 509
566556 837846 525
652681 934587 525
590630 530675 452
747691 686688 504
513311 649363 509
442170 763438 509
280747 688915 509
658041 618030 509
602508 480910 470
409996 299007 441
234992 478746 449
878441 314631 525
509484 692804 509
55280 738012 509
191985 847571 525
177876 231809 443
560011 303124 470
972455 588014 525
242469 161117 443
