444922 730643 509
318014 912271 525
620048 871863 525
211617 635305 509
653680 993866 525
326144 770574 509
576189 545284 452
242781 309110 407
931278 872799 476
762842 466247 509
829665 517010 509
586020 474933 470
246480 591129 470
864371 58499 525
32053 55798 340
126137 854737 525
66125 663826 509
89963 22845 351
84559 23898 351
21763 788652 509
738306 433953 509
639116 318973 509
834186 865919 525
901996 404336 525
418333 547697 470
299606 381526 441
284966 583131 470
312853 306049 384
963701 236713 525
660768 119888 509
540036 471201 470
303274 559025 470
533479 17583 470
797360 461021 509
482403 362043 449
789934 191234 509
349333 644171 509
933101 274126 525
329767 285520 389
714090 938476 525
69055 378963 443
661808 351079 509
721109 891131 525
614023 991455 525
381788 298822 441
579165 615513 447
653432 831405 504
105387 125676 354
746912 292577 509
792138 61468 509
140185 924106 525
741659 474566 509
640501 748218 504
226039 886836 525
22953 949701 525
623868 900937 525
375197 260068 441
121736 365090 443
449215 929774 525
724115 456428 509
906925 101502 525
503158 819719 509
214371 564315 470
217496 148679 386
377721 437055 449
793421 214126 509
570683 657874 509
378401 441670 449
849308 688776 525
938286 662853 525
828449 17691 509
171444 832083 509
438254 686515 509
310449 475975 449
603749 687415 509
228589 261264 443
533842 58498 470
248305 225812 443
944626 360335 525
524852 658665 509
750591 986764 525
642827 518004 509
245957 328737 407
381698 447372 449
678589 394119 509
842045 121250 525
501618 700582 509
376446 499842 449
38392 415827 449
38431 96814 351
942880 561482 525
600330 5260 470
609497 570788 434
138801 666825 509
274494 108965 443
75712 459889 449
251498 501260 449
360849 537277 470
468699 756876 509
711550 428368 509
516582 199407 470
216711 221865 355
605591 279461 470
811892 925437 525
816599 809838 406
674148 478874 509
456178 635042 509
280307 515271 470
817429 105198 509
902654 399995 525
611056 111384 470
225804 763193 509
447957 301963 449
469010 509087 426
441024 245328 449
810632 91965 509
535937 123211 470
894227 247042 525
63804 182133 383
493110 791917 509
515640 66599 470
972667 581604 525
604488 639558 509
588051 733943 509
72103 888665 525
845860 701696 525
560026 24578 470
665993 13736 509
446658 800666 509
868395 437419 525
525007 589008 452
735443 891729 525
318421 258462 407
159463 738413 509
723066 317571 509
102591 597069 470
215450 101575 383
471285 866158 525
879479 903259 445
952523 333337 525
992532 175689 525
883594 473589 525
580506 404976 470
967487 286411 525
150175 750336 509
515830 38268 470
820738 670388 504
421487 427364 418
815199 675801 504
154855 193906 383
303037 276927 389
22318 611724 470
366724 398078 436
859868 668170 525
753470 888341 525
296468 919534 525
846214 766019 525
692832 695635 367
405420 23626 443
420388 940590 525
34589 506442 449
448783 386416 449
499850 994611 525
117827 978777 525
332601 884477 525
373087 549831 470
440961 332307 449
224785 296787 443
329324 976984 525
531074 344003 470
927509 223653 525
10208 272891 443
453387 694503 509
435264 966706 525
631079 9518 509
768603 746762 468
620963 657490 509
292995 111366 443
493377 853970 525
782764 267788 509
623738 712626 509
624381 48420 470
841528 356302 525
663262 588344 509
550035 271775 470
687513 998800 525
548660 138917 470
98469 660516 509
345209 441967 449
61622 699509 509
220145 299875 443
361468 645152 509
733452 293523 509
62452 860145 525
862668 450865 525
845934 692030 525
785350 56137 509
283559 711108 509
361105 790729 509
453646 185591 449
592651 806187 509
154488 622910 470
463287 117964 449
535016 860872 525
575827 832058 509
67090 565557 470
735390 504428 509
671014 326924 509
903147 754674 525
545133 71420 470
807936 99359 509
385042 639585 509
227825 757855 509
218890 994717 525
161967 448638 449
711174 741261 424
268337 977222 525
912373 754423 525
118687 224373 386
407463 675810 509
949817 435321 525
781493 565332 509
524079 817951 509
123565 494999 449
824294 539098 509
567602 536540 452
19529 309376 443
770434 202592 509
292585 332438 384
572741 976500 525
563962 933594 525
381540 980952 525
525629 210132 470
936116 859178 476
335571 727118 509
77033 752941 509
253021 488024 449
769952 770274 331
266737 783165 509
340493 438286 449
203024 516062 470
622288 982435 525
607491 884446 525
744843 127703 509
246778 34313 443
918311 140536 525
756708 536102 509
993575 70583 525
892677 155563 525
329213 275258 389
331759 417288 449
36532 450422 449
305519 467227 449
122049 168526 383
474799 120451 449
150848 148269 370
57389 676416 509
83303 267219 443
390583 875349 525
447717 437965 400
60108 853189 525
462632 765959 509
250415 193951 443
427086 424355 356
883510 25562 525
284273 202856 443
964335 865483 507
866944 129232 525
28225 56143 340
197621 15055 383
174460 120060 383
708540 448139 509
512181 878848 525
610304 548581 434
419456 39273 449
960031 88980 525
179584 659350 509
804351 468377 509
630472 844666 525
781426 119191 509
567838 846072 525
100282 143569 375
921225 864592 476
779481 80523 509
20421 867778 525
996311 18355 525
951814 490176 525
196060 634055 509
465594 644247 509
202112 98713 383
187359 603770 470
642261 153524 509
685750 989230 525
555866 59149 470
445955 148997 449
775336 332104 509
711867 701005 504
900876 430196 525
61887 601426 470
206194 155547 383
